…
With pdf_text(), we get one long element containing all of the text on the entire page, interspersed with newline characters (\n). If I use this function to extract the data, I will have to split on the newline character in order to separate the rows of data.

myData2 <- pdf_data("./data/Allegany County Statistical Report 2018.pdf")
myData2[[1]]

## # A tibble: 147 x 6
##    width height     x     y space text       
##    <int>  <int> <int> <int> <lgl> <chr>      
##  1    31     12   230   116 TRUE  2018       
##  2    66     12   266   116 TRUE  Statistical
##  3    44     12   336   116 FALSE Report     
##  4    50     11   246   132 TRUE  Allegany   
##  5    44     11   299   132 TRUE  County,    
##  6    18     11   347   132 FALSE MD         
##  7    38     11    72   159 TRUE  County     
##  8    55     11   113   159 TRUE  accounted  
##  9    14     11   172   159 TRUE  for        
## 10    27     11   189   159 TRUE  1.7%       
## # … with 137 more rows

With pdf_data(), each individual word/number has its own line in the data, with associated (x,y) values to designate the text’s starting location. This means I can keep texts from the same line together by pulling text with the same y-value together. But, beyond this, I can also separate the columns of the data by using the x-value, which is helpful because parts of the document have two pieces of data on the same line.

You can see what I mean here, where I collapse the text within the same line together based on x values:

pdfData <- pdf_data("./data/Allegany County Statistical Report 2018.pdf")
p1Data <- pdfData[[1]]

p1Data %>% 
  group_by(y) %>% 
  arrange(x, .by_group=TRUE) %>%
  summarize(line = paste(text, collapse=" "))

## # A tibble: 43 x 2
##        y line                                                                           
##    <int> <chr>                                                                          
##  1   116 2018 Statistical Report                                                        
##  2   132 Allegany County, MD                                                            
##  3   159 County accounted for 1.7% of human exposure calls to the Maryland Poison Center
##  4   187 Types of Calls                                                                 
##  5   217 Total human exposures 529 Animal Exposures 24                                  
##  6   231 < 12 months 14                                                                 
##  7   244 1 year 51 Information Calls 159                                                
##  8   258 2 years 31                                                                     
##  9   272 3 years 37                                                                     
## 10   286 4 years 13                                                                     
## # … with 33 more rows
…
First, I extract the year and county by ordering the data by the y and x values and then selecting the relevant pieces:

orderedData <- p1Data %>% arrange(y,x)
orderedData

## # A tibble: 147 x 6
##    width height     x     y space text       
##    <int>  <int> <int> <int> <lgl> <chr>      
##  1    31     12   230   116 TRUE  2018       
##  2    66     12   266   116 TRUE  Statistical
##  3    44     12   336   116 FALSE Report     
##  4    50     11   246   132 TRUE  Allegany   
##  5    44     11   299   132 TRUE  County,    
##  6    18     11   347   132 FALSE MD         
##  7    38     11    72   159 TRUE  County     
##  8    55     11   113   159 TRUE  accounted  
##  9    14     11   172   159 TRUE  for        
## 10    27     11   189   159 TRUE  1.7%       
## # … with 137 more rows
year <- orderedData$text[1]
county <- paste(orderedData$text[4:5],collapse=" ")
county = gsub(",","",county)

county; year

## [1] "Allegany County"

## [1] "2018"

Next, I remove these first three header rows and then split into two columns. To do this, I see that the first three rows of data end at y=159 and the fourth row starts at y=187, so I can filter on y > 160 to remove these rows.

p1Data %>% group_by(y) %>% summarize(n=n())

## # A tibble: 43 x 2
##        y     n
##    <int> <int>
##  1   116     3
##  2   132     3
##  3   159    13
##  4   187     3
##  5   217     7
##  6   231     4
##  7   244     6
##  8   258     3
##  9   272     3
## 10   286     3
## # … with 33 more rows
…
I can see that the end of the first column is at x=258 and the start of the second column is at x=298, so I can split the columns by x < 260 and designate these two columns with a new column variable:

p1Data <- p1Data %>%
  mutate(column=ifelse(x < 260, "Left", "Right"))

Finally, I can collapse lines within a column by first grouping by column, then grouping by y and collapsing across x:

lineData <- p1Data %>% 
  group_by(column,y) %>% 
  arrange(x, .by_group=TRUE) %>%
  summarize(line = paste(text, collapse=" "))

lineData

## # A tibble: 47 x 3
## # Groups:   column [2]
##    column     y line                     
##    <chr>  <int> <chr>                    
##  1 Left     187 Types of Calls           
##  2 Left     217 Total human exposures 529
##  3 Left     231 < 12 months 14           
##  4 Left     244 1 year 51                
##  5 Left     258 2 years 31               
##  6 Left     272 3 years 37               
##  7 Left     286 4 years 13               
##  8 Left     300 5 years 3                
##  9 Left     313 6-12 years 24            
## 10 Left     327 13-19 years 65           
## # … with 37 more rows

Now I don’t actually want to collapse across all text in a row, because the last text value is the count of observations in that category. So I want to keep the last text piece as the variable’s value and then use the previous pieces to make up the variable’s name. Once I label these pieces appropriately, I can collapse across the values of the variable’s name to get both the variable itself and the count for that variable.

groupedData <- p1Data %>% 
  group_by(column,y) %>% 
  arrange(x, .by_group=TRUE) %>%
  mutate(type = ifelse(x==max(x), "value", "name"))

groupedData

## # A tibble: 128 x 8
## # Groups:   column, y [47]
##    width height     x     y space text      column type 
##    <int>  <int> <int> <int> <lgl> <chr>     <chr>  <chr>
##  1    40     12    72   187 TRUE  Types     Left   name 
##  2    13     12   116   187 TRUE  of        Left   name 
##  3    33     12   133   187 FALSE Calls     Left   value
##  4    28     11    77   217 TRUE  Total     Left   name 
##  5    39     11   109   217 TRUE  human     Left   name 
##  6    59     11   152   217 FALSE exposures Left   name 
##  7    20     11   224   217 FALSE 529       Left   value
##  8     7     11    77   231 TRUE  <         Left   name 
##  9    13     11    87   231 TRUE  12        Left   name 
## 10    39     11   104   231 FALSE months    Left   name 
## # … with 118 more rows

countData <- groupedData %>% 
  group_by(column, y) %>%
  arrange(x, .by_group=TRUE) %>%
  summarize(variable = paste(text[type=="name"], collapse=" "), count=text[type=="value"])

countData

## # A tibble: 47 x 4
## # Groups:   column [2]
##    column     y variable              count
##    <chr>  <int> <chr>                 <chr>
##  1 Left     187 Types of              Calls
##  2 Left     217 Total human exposures 529  
##  3 Left     231 < 12 months           14   
##  4 Left     244 1 year                51   
##  5 Left     258 2 years               31   
##  6 Left     272 3 years               37   
##  7 Left     286 4 years               13   
##  8 Left     300 5 years               3    
##  9 Left     313 6-12 years            24   
## 10 Left     327 13-19 years           65   
## # … with 37 more rows
…
